<?xml version="1.0" encoding="utf-8"?>
<!-- Generator: Adobe Illustrator 17.0.0, SVG Export Plug-In . SVG Version: 6.00 Build 0)  -->
<!DOCTYPE svg PUBLIC "-//W3C//DTD SVG 1.1//EN" "http://www.w3.org/Graphics/SVG/1.1/DTD/svg11.dtd">
<svg version="1.1" id="Layer_1" xmlns="http://www.w3.org/2000/svg" xmlns:xlink="http://www.w3.org/1999/xlink" x="0px" y="0px"
	 width="30px" height="30px" viewBox="0 0 30 30" enable-background="new 0 0 30 30" xml:space="preserve">
<g>
	<path fill="#434142" d="M15,3C8.373,3,3,8.373,3,15s5.373,12,12,12s12-5.373,12-12S21.627,3,15,3z M15,23.918
		c-4.925,0-8.918-3.993-8.918-8.918c0-4.926,3.993-8.918,8.918-8.918c4.926,0,8.918,3.993,8.918,8.918S19.926,23.918,15,23.918z"/>
	<rect x="13.578" y="11.09" transform="matrix(0.0027 1 -1 0.0027 29.9591 -0.0406)" fill="#434142" width="2.844" height="7.82"/>
	
		<rect x="13.578" y="11.09" transform="matrix(-1 0.0027 -0.0027 -1 30.0409 29.9593)" fill="#434142" width="2.844" height="7.82"/>
</g>
</svg>
