<?xml version="1.0" encoding="utf-8"?>
<!-- Generator: Adobe Illustrator 17.0.0, SVG Export Plug-In . SVG Version: 6.00 Build 0)  -->
<!DOCTYPE svg PUBLIC "-//W3C//DTD SVG 1.1//EN" "http://www.w3.org/Graphics/SVG/1.1/DTD/svg11.dtd">
<svg version="1.1" id="Layer_1" xmlns="http://www.w3.org/2000/svg" xmlns:xlink="http://www.w3.org/1999/xlink" x="0px" y="0px"
	 width="30px" height="30px" viewBox="0 0 30 30" enable-background="new 0 0 30 30" xml:space="preserve">
<g>
	
		<rect x="14.155" y="5.542" transform="matrix(-1 -0.0027 0.0027 -1 31.1297 20.7995)" fill="#434142" width="2.848" height="9.673"/>
	<g>
		
			<rect x="15.936" y="9.815" transform="matrix(-0.7052 -0.709 0.709 -0.7052 19.8672 35.7237)" fill="#434142" width="2.848" height="7.833"/>
		
			<rect x="12.374" y="9.816" transform="matrix(-0.7052 0.709 -0.709 -0.7052 33.264 13.6336)" fill="#434142" width="2.848" height="7.833"/>
	</g>
	<path fill="#434142" d="M23.913,12.845c-0.213,4.745-4.116,8.53-8.913,8.53c-4.798,0-8.7-3.785-8.913-8.53H3
		c0.215,6.45,5.498,11.616,12,11.616s11.785-5.166,12-11.616H23.913z"/>
</g>
</svg>
